{
  "development": {
    "dialect": "postgres",
    "username": "postgres",
    "password": "postgres",
    "database": "utep"
  },
  "test": {
    "username": "root",
    "password": null,
    "database": "database_test",
    "host": "127.0.0.1",
    "dialect": "mysql"
  },
  "production": {
    "url": "postgres://qewtkguxcabxnd:GXW7EAjGKtb1rND3Zu7NCOCa3T@/d6s73n0gs8gthj",
    "username": "qewtkguxcabxnd",
    "password": "GXW7EAjGKtb1rND3Zu7NCOCa3T",
    "database": "d6s73n0gs8gthj",
    "host": "ec2-54-235-162-144.compute-1.amazonaws.com:5432",
    "dialect": "postgres"
  }
}
